[
  {
    "Id": 1,
    "Name": "Cajado Devastador"
  },
  {
    "Id": 2,
    "Name": "Phaser"
  },
  {
    "Id": 3,
    "Name": "Peixeira"
  },
  {
    "Id": 4,
    "Name": "Trezoitao"
  },
  {
    "Id": 5,
    "Name": "Sabre de Luz"
  },
  {
    "Id": 6,
    "Name": "Bomba"
  }
]